<?xml version="1.0" encoding="UTF-8"?>
<svg xmlns="http://www.w3.org/2000/svg" xmlns:xlink="http://www.w3.org/1999/xlink" width="323pt" height="250pt" viewBox="0 0 323 250" version="1.1">
<defs>
<g>
<symbol overflow="visible" id="glyph0-0">
<path style="stroke:none;" d="M 0.640625 2.296875 L 0.640625 -9.171875 L 7.140625 -9.171875 L 7.140625 2.296875 Z M 1.375 1.578125 L 6.421875 1.578125 L 6.421875 -8.4375 L 1.375 -8.4375 Z M 1.375 1.578125 "/>
</symbol>
<symbol overflow="visible" id="glyph0-1">
<path style="stroke:none;" d="M 3.71875 0 L 0.109375 -9.484375 L 1.4375 -9.484375 L 4.4375 -1.5 L 7.453125 -9.484375 L 8.78125 -9.484375 L 5.171875 0 Z M 3.71875 0 "/>
</symbol>
<symbol overflow="visible" id="glyph0-2">
<path style="stroke:none;" d="M 1.28125 -9.484375 L 3.1875 -9.484375 L 5.609375 -3.03125 L 8.03125 -9.484375 L 9.953125 -9.484375 L 9.953125 0 L 8.703125 0 L 8.703125 -8.328125 L 6.25 -1.828125 L 4.96875 -1.828125 L 2.515625 -8.328125 L 2.515625 0 L 1.28125 0 Z M 1.28125 -9.484375 "/>
</symbol>
<symbol overflow="visible" id="glyph0-3">
<path style="stroke:none;" d=""/>
</symbol>
<symbol overflow="visible" id="glyph0-4">
<path style="stroke:none;" d="M 1.609375 -1.078125 L 3.703125 -1.078125 L 3.703125 -8.3125 L 1.421875 -7.859375 L 1.421875 -9.015625 L 3.6875 -9.484375 L 4.984375 -9.484375 L 4.984375 -1.078125 L 7.078125 -1.078125 L 7.078125 0 L 1.609375 0 Z M 1.609375 -1.078125 "/>
</symbol>
<symbol overflow="visible" id="glyph0-5">
<path style="stroke:none;" d="M 2.5 -1.078125 L 6.96875 -1.078125 L 6.96875 0 L 0.953125 0 L 0.953125 -1.078125 C 1.441406 -1.578125 2.101562 -2.25 2.9375 -3.09375 C 3.78125 -3.945312 4.3125 -4.5 4.53125 -4.75 C 4.9375 -5.207031 5.21875 -5.597656 5.375 -5.921875 C 5.539062 -6.242188 5.625 -6.554688 5.625 -6.859375 C 5.625 -7.367188 5.445312 -7.78125 5.09375 -8.09375 C 4.75 -8.40625 4.289062 -8.5625 3.71875 -8.5625 C 3.3125 -8.5625 2.882812 -8.492188 2.4375 -8.359375 C 2 -8.222656 1.523438 -8.007812 1.015625 -7.71875 L 1.015625 -9.015625 C 1.535156 -9.222656 2.019531 -9.378906 2.46875 -9.484375 C 2.914062 -9.597656 3.320312 -9.65625 3.6875 -9.65625 C 4.675781 -9.65625 5.460938 -9.40625 6.046875 -8.90625 C 6.628906 -8.414062 6.921875 -7.757812 6.921875 -6.9375 C 6.921875 -6.550781 6.847656 -6.179688 6.703125 -5.828125 C 6.554688 -5.484375 6.289062 -5.078125 5.90625 -4.609375 C 5.800781 -4.484375 5.460938 -4.125 4.890625 -3.53125 C 4.328125 -2.945312 3.53125 -2.128906 2.5 -1.078125 Z M 2.5 -1.078125 "/>
</symbol>
<symbol overflow="visible" id="glyph0-6">
<path style="stroke:none;" d="M 1.390625 -1.609375 L 2.734375 -1.609375 L 2.734375 0 L 1.390625 0 Z M 1.390625 -1.609375 "/>
</symbol>
<symbol overflow="visible" id="glyph0-7">
<path style="stroke:none;" d="M 7.734375 -1.359375 L 7.734375 -3.890625 L 5.640625 -3.890625 L 5.640625 -4.953125 L 9 -4.953125 L 9 -0.875 C 8.507812 -0.53125 7.960938 -0.265625 7.359375 -0.078125 C 6.765625 0.0976562 6.128906 0.1875 5.453125 0.1875 C 3.972656 0.1875 2.816406 -0.242188 1.984375 -1.109375 C 1.148438 -1.972656 0.734375 -3.179688 0.734375 -4.734375 C 0.734375 -6.273438 1.148438 -7.476562 1.984375 -8.34375 C 2.816406 -9.21875 3.972656 -9.65625 5.453125 -9.65625 C 6.078125 -9.65625 6.664062 -9.578125 7.21875 -9.421875 C 7.78125 -9.265625 8.296875 -9.039062 8.765625 -8.75 L 8.765625 -7.375 C 8.285156 -7.78125 7.78125 -8.082031 7.25 -8.28125 C 6.71875 -8.488281 6.15625 -8.59375 5.5625 -8.59375 C 4.40625 -8.59375 3.535156 -8.269531 2.953125 -7.625 C 2.367188 -6.976562 2.078125 -6.015625 2.078125 -4.734375 C 2.078125 -3.453125 2.367188 -2.488281 2.953125 -1.84375 C 3.535156 -1.195312 4.40625 -0.875 5.5625 -0.875 C 6.019531 -0.875 6.425781 -0.910156 6.78125 -0.984375 C 7.132812 -1.066406 7.453125 -1.191406 7.734375 -1.359375 Z M 7.734375 -1.359375 "/>
</symbol>
<symbol overflow="visible" id="glyph0-8">
<path style="stroke:none;" d="M 3.984375 -6.296875 C 3.359375 -6.296875 2.863281 -6.050781 2.5 -5.5625 C 2.132812 -5.070312 1.953125 -4.398438 1.953125 -3.546875 C 1.953125 -2.691406 2.128906 -2.019531 2.484375 -1.53125 C 2.847656 -1.050781 3.347656 -0.8125 3.984375 -0.8125 C 4.597656 -0.8125 5.085938 -1.054688 5.453125 -1.546875 C 5.816406 -2.035156 6 -2.703125 6 -3.546875 C 6 -4.390625 5.816406 -5.054688 5.453125 -5.546875 C 5.085938 -6.046875 4.597656 -6.296875 3.984375 -6.296875 Z M 3.984375 -7.28125 C 4.992188 -7.28125 5.789062 -6.945312 6.375 -6.28125 C 6.957031 -5.625 7.25 -4.710938 7.25 -3.546875 C 7.25 -2.378906 6.957031 -1.460938 6.375 -0.796875 C 5.789062 -0.140625 4.992188 0.1875 3.984375 0.1875 C 2.960938 0.1875 2.160156 -0.140625 1.578125 -0.796875 C 1.003906 -1.460938 0.71875 -2.378906 0.71875 -3.546875 C 0.71875 -4.710938 1.003906 -5.625 1.578125 -6.28125 C 2.160156 -6.945312 2.960938 -7.28125 3.984375 -7.28125 Z M 3.984375 -7.28125 "/>
</symbol>
<symbol overflow="visible" id="glyph0-9">
<path style="stroke:none;" d="M 5.90625 -3.640625 C 5.90625 -4.484375 5.726562 -5.132812 5.375 -5.59375 C 5.03125 -6.0625 4.539062 -6.296875 3.90625 -6.296875 C 3.28125 -6.296875 2.789062 -6.0625 2.4375 -5.59375 C 2.09375 -5.132812 1.921875 -4.484375 1.921875 -3.640625 C 1.921875 -2.796875 2.09375 -2.140625 2.4375 -1.671875 C 2.789062 -1.210938 3.28125 -0.984375 3.90625 -0.984375 C 4.539062 -0.984375 5.03125 -1.210938 5.375 -1.671875 C 5.726562 -2.140625 5.90625 -2.796875 5.90625 -3.640625 Z M 7.078125 -0.875 C 7.078125 0.332031 6.804688 1.226562 6.265625 1.8125 C 5.722656 2.40625 4.898438 2.703125 3.796875 2.703125 C 3.390625 2.703125 3.003906 2.671875 2.640625 2.609375 C 2.273438 2.546875 1.921875 2.453125 1.578125 2.328125 L 1.578125 1.1875 C 1.921875 1.375 2.257812 1.507812 2.59375 1.59375 C 2.925781 1.6875 3.265625 1.734375 3.609375 1.734375 C 4.378906 1.734375 4.953125 1.535156 5.328125 1.140625 C 5.710938 0.742188 5.90625 0.140625 5.90625 -0.671875 L 5.90625 -1.25 C 5.664062 -0.832031 5.351562 -0.519531 4.96875 -0.3125 C 4.59375 -0.101562 4.144531 0 3.625 0 C 2.75 0 2.046875 -0.332031 1.515625 -1 C 0.984375 -1.664062 0.71875 -2.546875 0.71875 -3.640625 C 0.71875 -4.734375 0.984375 -5.613281 1.515625 -6.28125 C 2.046875 -6.945312 2.75 -7.28125 3.625 -7.28125 C 4.144531 -7.28125 4.59375 -7.175781 4.96875 -6.96875 C 5.351562 -6.757812 5.664062 -6.445312 5.90625 -6.03125 L 5.90625 -7.109375 L 7.078125 -7.109375 Z M 7.078125 -0.875 "/>
</symbol>
<symbol overflow="visible" id="glyph0-10">
<path style="stroke:none;" d="M 1.21875 -9.875 L 2.390625 -9.875 L 2.390625 0 L 1.21875 0 Z M 1.21875 -9.875 "/>
</symbol>
<symbol overflow="visible" id="glyph0-11">
<path style="stroke:none;" d="M 7.3125 -3.84375 L 7.3125 -3.28125 L 1.9375 -3.28125 C 1.988281 -2.46875 2.226562 -1.851562 2.65625 -1.4375 C 3.09375 -1.019531 3.695312 -0.8125 4.46875 -0.8125 C 4.914062 -0.8125 5.347656 -0.863281 5.765625 -0.96875 C 6.191406 -1.082031 6.613281 -1.25 7.03125 -1.46875 L 7.03125 -0.359375 C 6.613281 -0.179688 6.179688 -0.046875 5.734375 0.046875 C 5.296875 0.140625 4.851562 0.1875 4.40625 0.1875 C 3.269531 0.1875 2.367188 -0.140625 1.703125 -0.796875 C 1.046875 -1.460938 0.71875 -2.359375 0.71875 -3.484375 C 0.71875 -4.648438 1.03125 -5.570312 1.65625 -6.25 C 2.289062 -6.9375 3.140625 -7.28125 4.203125 -7.28125 C 5.160156 -7.28125 5.914062 -6.972656 6.46875 -6.359375 C 7.03125 -5.742188 7.3125 -4.90625 7.3125 -3.84375 Z M 6.140625 -4.1875 C 6.128906 -4.820312 5.945312 -5.332031 5.59375 -5.71875 C 5.25 -6.101562 4.789062 -6.296875 4.21875 -6.296875 C 3.5625 -6.296875 3.035156 -6.109375 2.640625 -5.734375 C 2.253906 -5.367188 2.03125 -4.851562 1.96875 -4.1875 Z M 6.140625 -4.1875 "/>
</symbol>
<symbol overflow="visible" id="glyph0-12">
<path style="stroke:none;" d="M 8.375 -8.75 L 8.375 -7.390625 C 7.9375 -7.796875 7.472656 -8.097656 6.984375 -8.296875 C 6.503906 -8.492188 5.988281 -8.59375 5.4375 -8.59375 C 4.351562 -8.59375 3.519531 -8.257812 2.9375 -7.59375 C 2.363281 -6.9375 2.078125 -5.984375 2.078125 -4.734375 C 2.078125 -3.484375 2.363281 -2.523438 2.9375 -1.859375 C 3.519531 -1.203125 4.351562 -0.875 5.4375 -0.875 C 5.988281 -0.875 6.503906 -0.972656 6.984375 -1.171875 C 7.472656 -1.367188 7.9375 -1.664062 8.375 -2.0625 L 8.375 -0.734375 C 7.925781 -0.421875 7.453125 -0.1875 6.953125 -0.03125 C 6.453125 0.113281 5.921875 0.1875 5.359375 0.1875 C 3.921875 0.1875 2.789062 -0.25 1.96875 -1.125 C 1.144531 -2.007812 0.734375 -3.210938 0.734375 -4.734375 C 0.734375 -6.253906 1.144531 -7.453125 1.96875 -8.328125 C 2.789062 -9.210938 3.921875 -9.65625 5.359375 -9.65625 C 5.921875 -9.65625 6.453125 -9.578125 6.953125 -9.421875 C 7.460938 -9.273438 7.9375 -9.050781 8.375 -8.75 Z M 8.375 -8.75 "/>
</symbol>
<symbol overflow="visible" id="glyph0-13">
<path style="stroke:none;" d="M 1.109375 -2.8125 L 1.109375 -7.109375 L 2.265625 -7.109375 L 2.265625 -2.84375 C 2.265625 -2.175781 2.394531 -1.671875 2.65625 -1.328125 C 2.925781 -0.992188 3.320312 -0.828125 3.84375 -0.828125 C 4.476562 -0.828125 4.976562 -1.023438 5.34375 -1.421875 C 5.707031 -1.828125 5.890625 -2.378906 5.890625 -3.078125 L 5.890625 -7.109375 L 7.0625 -7.109375 L 7.0625 0 L 5.890625 0 L 5.890625 -1.09375 C 5.609375 -0.65625 5.28125 -0.332031 4.90625 -0.125 C 4.53125 0.0820312 4.09375 0.1875 3.59375 0.1875 C 2.78125 0.1875 2.160156 -0.0664062 1.734375 -0.578125 C 1.316406 -1.085938 1.109375 -1.832031 1.109375 -2.8125 Z M 4.046875 -7.28125 Z M 4.046875 -7.28125 "/>
</symbol>
<symbol overflow="visible" id="glyph0-14">
<path style="stroke:none;" d="M 5.90625 -6.03125 L 5.90625 -9.875 L 7.078125 -9.875 L 7.078125 0 L 5.90625 0 L 5.90625 -1.0625 C 5.65625 -0.644531 5.34375 -0.332031 4.96875 -0.125 C 4.59375 0.0820312 4.144531 0.1875 3.625 0.1875 C 2.769531 0.1875 2.070312 -0.15625 1.53125 -0.84375 C 0.988281 -1.53125 0.71875 -2.429688 0.71875 -3.546875 C 0.71875 -4.660156 0.988281 -5.5625 1.53125 -6.25 C 2.070312 -6.9375 2.769531 -7.28125 3.625 -7.28125 C 4.144531 -7.28125 4.59375 -7.175781 4.96875 -6.96875 C 5.34375 -6.769531 5.65625 -6.457031 5.90625 -6.03125 Z M 1.921875 -3.546875 C 1.921875 -2.691406 2.097656 -2.019531 2.453125 -1.53125 C 2.804688 -1.039062 3.289062 -0.796875 3.90625 -0.796875 C 4.53125 -0.796875 5.019531 -1.039062 5.375 -1.53125 C 5.726562 -2.019531 5.90625 -2.691406 5.90625 -3.546875 C 5.90625 -4.410156 5.726562 -5.082031 5.375 -5.5625 C 5.019531 -6.050781 4.53125 -6.296875 3.90625 -6.296875 C 3.289062 -6.296875 2.804688 -6.050781 2.453125 -5.5625 C 2.097656 -5.082031 1.921875 -4.410156 1.921875 -3.546875 Z M 1.921875 -3.546875 "/>
</symbol>
<symbol overflow="visible" id="glyph0-15">
<path style="stroke:none;" d="M 2.5625 -8.421875 L 2.5625 -4.859375 L 4.171875 -4.859375 C 4.765625 -4.859375 5.222656 -5.015625 5.546875 -5.328125 C 5.878906 -5.640625 6.046875 -6.078125 6.046875 -6.640625 C 6.046875 -7.210938 5.878906 -7.648438 5.546875 -7.953125 C 5.222656 -8.265625 4.765625 -8.421875 4.171875 -8.421875 Z M 1.28125 -9.484375 L 4.171875 -9.484375 C 5.234375 -9.484375 6.035156 -9.238281 6.578125 -8.75 C 7.117188 -8.269531 7.390625 -7.566406 7.390625 -6.640625 C 7.390625 -5.710938 7.117188 -5.007812 6.578125 -4.53125 C 6.035156 -4.050781 5.234375 -3.8125 4.171875 -3.8125 L 2.5625 -3.8125 L 2.5625 0 L 1.28125 0 Z M 1.28125 -9.484375 "/>
</symbol>
<symbol overflow="visible" id="glyph0-16">
<path style="stroke:none;" d="M 5.34375 -6.015625 C 5.207031 -6.085938 5.0625 -6.140625 4.90625 -6.171875 C 4.757812 -6.210938 4.59375 -6.234375 4.40625 -6.234375 C 3.75 -6.234375 3.242188 -6.019531 2.890625 -5.59375 C 2.535156 -5.164062 2.359375 -4.550781 2.359375 -3.75 L 2.359375 0 L 1.1875 0 L 1.1875 -7.109375 L 2.359375 -7.109375 L 2.359375 -6 C 2.597656 -6.4375 2.914062 -6.757812 3.3125 -6.96875 C 3.707031 -7.175781 4.1875 -7.28125 4.75 -7.28125 C 4.832031 -7.28125 4.921875 -7.273438 5.015625 -7.265625 C 5.109375 -7.253906 5.21875 -7.238281 5.34375 -7.21875 Z M 5.34375 -6.015625 "/>
</symbol>
<symbol overflow="visible" id="glyph0-17">
<path style="stroke:none;" d="M 1.21875 -7.109375 L 2.390625 -7.109375 L 2.390625 0.125 C 2.390625 1.03125 2.21875 1.6875 1.875 2.09375 C 1.53125 2.5 0.972656 2.703125 0.203125 2.703125 L -0.234375 2.703125 L -0.234375 1.71875 L 0.078125 1.71875 C 0.523438 1.71875 0.828125 1.613281 0.984375 1.40625 C 1.140625 1.195312 1.21875 0.769531 1.21875 0.125 Z M 1.21875 -9.875 L 2.390625 -9.875 L 2.390625 -8.390625 L 1.21875 -8.390625 Z M 1.21875 -9.875 "/>
</symbol>
<symbol overflow="visible" id="glyph0-18">
<path style="stroke:none;" d="M 6.34375 -6.84375 L 6.34375 -5.75 C 6.007812 -5.925781 5.675781 -6.0625 5.34375 -6.15625 C 5.007812 -6.25 4.675781 -6.296875 4.34375 -6.296875 C 3.582031 -6.296875 2.992188 -6.050781 2.578125 -5.5625 C 2.160156 -5.082031 1.953125 -4.410156 1.953125 -3.546875 C 1.953125 -2.679688 2.160156 -2.007812 2.578125 -1.53125 C 2.992188 -1.050781 3.582031 -0.8125 4.34375 -0.8125 C 4.675781 -0.8125 5.007812 -0.851562 5.34375 -0.9375 C 5.675781 -1.03125 6.007812 -1.171875 6.34375 -1.359375 L 6.34375 -0.265625 C 6.019531 -0.117188 5.679688 -0.0078125 5.328125 0.0625 C 4.984375 0.144531 4.613281 0.1875 4.21875 0.1875 C 3.144531 0.1875 2.289062 -0.144531 1.65625 -0.8125 C 1.03125 -1.488281 0.71875 -2.398438 0.71875 -3.546875 C 0.71875 -4.703125 1.035156 -5.613281 1.671875 -6.28125 C 2.304688 -6.945312 3.179688 -7.28125 4.296875 -7.28125 C 4.648438 -7.28125 5 -7.242188 5.34375 -7.171875 C 5.6875 -7.097656 6.019531 -6.988281 6.34375 -6.84375 Z M 6.34375 -6.84375 "/>
</symbol>
<symbol overflow="visible" id="glyph0-19">
<path style="stroke:none;" d="M 2.375 -9.125 L 2.375 -7.109375 L 4.78125 -7.109375 L 4.78125 -6.203125 L 2.375 -6.203125 L 2.375 -2.34375 C 2.375 -1.757812 2.453125 -1.382812 2.609375 -1.21875 C 2.773438 -1.0625 3.101562 -0.984375 3.59375 -0.984375 L 4.78125 -0.984375 L 4.78125 0 L 3.59375 0 C 2.6875 0 2.0625 -0.164062 1.71875 -0.5 C 1.375 -0.84375 1.203125 -1.457031 1.203125 -2.34375 L 1.203125 -6.203125 L 0.34375 -6.203125 L 0.34375 -7.109375 L 1.203125 -7.109375 L 1.203125 -9.125 Z M 2.375 -9.125 "/>
</symbol>
</g>
</defs>
<g id="surface110506">
<rect x="0" y="0" width="323" height="250" style="fill:rgb(100%,100%,100%);fill-opacity:1;stroke:none;"/>
<path style="fill-rule:evenodd;fill:rgb(100%,100%,100%);fill-opacity:1;stroke-width:0.1;stroke-linecap:butt;stroke-linejoin:miter;stroke:rgb(0%,0%,0%);stroke-opacity:1;stroke-miterlimit:10;" d="M 4.7 2.2 L 20.75 2.2 L 20.75 14.65 L 4.7 14.65 Z M 4.7 2.2 " transform="matrix(20,0,0,20,-93,-43)"/>
<path style="fill-rule:evenodd;fill:rgb(100%,100%,100%);fill-opacity:1;stroke-width:0.1;stroke-linecap:butt;stroke-linejoin:miter;stroke:rgb(0%,0%,0%);stroke-opacity:1;stroke-miterlimit:10;" d="M 14.8 6.025 C 14.8 7.281445 12.639844 8.3 9.975 8.3 C 7.310156 8.3 5.15 7.281445 5.15 6.025 C 5.15 4.768555 7.310156 3.75 9.975 3.75 C 12.639844 3.75 14.8 4.768555 14.8 6.025 " transform="matrix(20,0,0,20,-93,-43)"/>
<g style="fill:rgb(0%,0%,0%);fill-opacity:1;">
  <use xlink:href="#glyph0-1" x="90.503906" y="77.505968"/>
  <use xlink:href="#glyph0-2" x="99.396864" y="77.505968"/>
  <use xlink:href="#glyph0-3" x="110.613227" y="77.505968"/>
  <use xlink:href="#glyph0-4" x="114.745443" y="77.505968"/>
</g>
<path style="fill-rule:evenodd;fill:rgb(100%,100%,100%);fill-opacity:1;stroke-width:0.1;stroke-linecap:butt;stroke-linejoin:miter;stroke:rgb(0%,0%,0%);stroke-opacity:1;stroke-miterlimit:10;" d="M 17.507422 8.147461 C 17.507422 9.403906 15.347266 10.422461 12.682422 10.422461 C 10.017773 10.422461 7.857422 9.403906 7.857422 8.147461 C 7.857422 6.891016 10.017773 5.872461 12.682422 5.872461 C 15.347266 5.872461 17.507422 6.891016 17.507422 8.147461 " transform="matrix(20,0,0,20,-93,-43)"/>
<g style="fill:rgb(0%,0%,0%);fill-opacity:1;">
  <use xlink:href="#glyph0-1" x="144.398438" y="119.955187"/>
  <use xlink:href="#glyph0-2" x="153.291395" y="119.955187"/>
  <use xlink:href="#glyph0-3" x="164.507758" y="119.955187"/>
  <use xlink:href="#glyph0-5" x="168.639974" y="119.955187"/>
</g>
<path style="fill-rule:evenodd;fill:rgb(100%,100%,100%);fill-opacity:1;stroke-width:0.1;stroke-linecap:butt;stroke-linejoin:miter;stroke:rgb(0%,0%,0%);stroke-opacity:1;stroke-miterlimit:10;" d="M 20.215039 10.269922 C 20.215039 11.526367 18.054688 12.544922 15.390039 12.544922 C 12.725195 12.544922 10.565039 11.526367 10.565039 10.269922 C 10.565039 9.013477 12.725195 7.994922 15.390039 7.994922 C 18.054688 7.994922 20.215039 9.013477 20.215039 10.269922 " transform="matrix(20,0,0,20,-93,-43)"/>
<g style="fill:rgb(0%,0%,0%);fill-opacity:1;">
  <use xlink:href="#glyph0-1" x="196.5" y="162.404405"/>
  <use xlink:href="#glyph0-2" x="205.392958" y="162.404405"/>
  <use xlink:href="#glyph0-3" x="216.609321" y="162.404405"/>
  <use xlink:href="#glyph0-6" x="220.741536" y="162.404405"/>
  <use xlink:href="#glyph0-6" x="224.873752" y="162.404405"/>
  <use xlink:href="#glyph0-6" x="229.005968" y="162.404405"/>
</g>
<g style="fill:rgb(0%,0%,0%);fill-opacity:1;">
  <use xlink:href="#glyph0-7" x="172" y="26.005968"/>
  <use xlink:href="#glyph0-8" x="182.073785" y="26.005968"/>
  <use xlink:href="#glyph0-8" x="190.027344" y="26.005968"/>
  <use xlink:href="#glyph0-9" x="197.980903" y="26.005968"/>
  <use xlink:href="#glyph0-10" x="206.232856" y="26.005968"/>
  <use xlink:href="#glyph0-11" x="209.844781" y="26.005968"/>
  <use xlink:href="#glyph0-3" x="217.842828" y="26.005968"/>
  <use xlink:href="#glyph0-12" x="221.975043" y="26.005968"/>
  <use xlink:href="#glyph0-10" x="231.052192" y="26.005968"/>
  <use xlink:href="#glyph0-8" x="234.664117" y="26.005968"/>
  <use xlink:href="#glyph0-13" x="242.617676" y="26.005968"/>
  <use xlink:href="#glyph0-14" x="250.856879" y="26.005968"/>
  <use xlink:href="#glyph0-3" x="259.108832" y="26.005968"/>
  <use xlink:href="#glyph0-15" x="263.241048" y="26.005968"/>
  <use xlink:href="#glyph0-16" x="270.851997" y="26.005968"/>
  <use xlink:href="#glyph0-8" x="275.911404" y="26.005968"/>
  <use xlink:href="#glyph0-17" x="283.864963" y="26.005968"/>
  <use xlink:href="#glyph0-11" x="287.476888" y="26.005968"/>
  <use xlink:href="#glyph0-18" x="295.474935" y="26.005968"/>
  <use xlink:href="#glyph0-19" x="302.622287" y="26.005968"/>
</g>
</g>
</svg>
