<?xml version="1.0" encoding="UTF-8" standalone="no"?>
<!DOCTYPE svg PUBLIC "-//W3C//DTD SVG 1.1//EN"
 "http://www.w3.org/Graphics/SVG/1.1/DTD/svg11.dtd">
<!-- Generated by graphviz version 2.43.0 (0)
 -->
<!-- Pages: 1 -->
<svg width="575pt" height="488pt"
 viewBox="0.00 0.00 574.61 488.17" xmlns="http://www.w3.org/2000/svg" xmlns:xlink="http://www.w3.org/1999/xlink">
<g id="graph0" class="graph" transform="scale(1 1) rotate(0) translate(4 484.17)">
<polygon fill="white" stroke="transparent" points="-4,4 -4,-484.17 570.61,-484.17 570.61,4 -4,4"/>
<text text-anchor="middle" x="283.3" y="-7.8" font-family="Times,serif" font-size="14.00">map of network 192.168.1.1/24</text>
<!-- Net 192.168.1.1/24 -->
<g id="node1" class="node">
<title>Net 192.168.1.1/24</title>
<ellipse fill="green" stroke="green" cx="294" cy="-251.58" rx="100.98" ry="18"/>
<text text-anchor="middle" x="294" y="-247.88" font-family="Times,serif" font-size="14.00">Net 192.168.1.1/24</text>
</g>
<!-- 192.168.1.1 -->
<g id="node2" class="node">
<title>192.168.1.1</title>
<ellipse fill="red" stroke="red" cx="488.61" cy="-345.3" rx="66.5" ry="18"/>
<text text-anchor="middle" x="488.61" y="-341.6" font-family="Times,serif" font-size="14.00">192.168.1.1</text>
</g>
<!-- 192.168.1.1&#45;&#45;Net 192.168.1.1/24 -->
<g id="edge1" class="edge">
<title>192.168.1.1&#45;&#45;Net 192.168.1.1/24</title>
<path fill="none" stroke="black" d="M455.6,-329.41C420.46,-312.48 365.08,-285.82 329.15,-268.51"/>
</g>
<!-- 192.168.1.142 -->
<g id="node3" class="node">
<title>192.168.1.142</title>
<ellipse fill="red" stroke="red" cx="342.06" cy="-462.17" rx="78" ry="18"/>
<text text-anchor="middle" x="342.06" y="-458.47" font-family="Times,serif" font-size="14.00">192.168.1.142</text>
</g>
<!-- 192.168.1.142&#45;&#45;Net 192.168.1.1/24 -->
<g id="edge2" class="edge">
<title>192.168.1.142&#45;&#45;Net 192.168.1.1/24</title>
<path fill="none" stroke="black" d="M337.88,-443.85C328.77,-403.92 307.21,-309.46 298.14,-269.71"/>
</g>
<!-- 192.168.1.174 -->
<g id="node4" class="node">
<title>192.168.1.174</title>
<ellipse fill="red" stroke="red" cx="159.33" cy="-420.46" rx="78" ry="18"/>
<text text-anchor="middle" x="159.33" y="-416.76" font-family="Times,serif" font-size="14.00">192.168.1.174</text>
</g>
<!-- 192.168.1.174&#45;&#45;Net 192.168.1.1/24 -->
<g id="edge3" class="edge">
<title>192.168.1.174&#45;&#45;Net 192.168.1.1/24</title>
<path fill="none" stroke="black" d="M173.48,-402.71C199.28,-370.36 253.67,-302.16 279.63,-269.61"/>
</g>
<!-- 192.168.1.206 -->
<g id="node5" class="node">
<title>192.168.1.206</title>
<ellipse fill="red" stroke="red" cx="78" cy="-251.58" rx="78" ry="18"/>
<text text-anchor="middle" x="78" y="-247.88" font-family="Times,serif" font-size="14.00">192.168.1.206</text>
</g>
<!-- 192.168.1.206&#45;&#45;Net 192.168.1.1/24 -->
<g id="edge4" class="edge">
<title>192.168.1.206&#45;&#45;Net 192.168.1.1/24</title>
<path fill="none" stroke="black" d="M156.29,-251.58C168.24,-251.58 180.72,-251.58 193.07,-251.58"/>
</g>
<!-- 192.168.1.215 -->
<g id="node6" class="node">
<title>192.168.1.215</title>
<ellipse fill="red" stroke="red" cx="159.33" cy="-82.71" rx="78" ry="18"/>
<text text-anchor="middle" x="159.33" y="-79.01" font-family="Times,serif" font-size="14.00">192.168.1.215</text>
</g>
<!-- 192.168.1.215&#45;&#45;Net 192.168.1.1/24 -->
<g id="edge5" class="edge">
<title>192.168.1.215&#45;&#45;Net 192.168.1.1/24</title>
<path fill="none" stroke="black" d="M173.48,-100.46C199.28,-132.81 253.67,-201.01 279.63,-233.56"/>
</g>
<!-- 192.168.1.220 -->
<g id="node7" class="node">
<title>192.168.1.220</title>
<ellipse fill="red" stroke="red" cx="342.06" cy="-41" rx="78" ry="18"/>
<text text-anchor="middle" x="342.06" y="-37.3" font-family="Times,serif" font-size="14.00">192.168.1.220</text>
</g>
<!-- 192.168.1.220&#45;&#45;Net 192.168.1.1/24 -->
<g id="edge6" class="edge">
<title>192.168.1.220&#45;&#45;Net 192.168.1.1/24</title>
<path fill="none" stroke="black" d="M337.88,-59.32C328.77,-99.25 307.21,-193.71 298.14,-233.46"/>
</g>
<!-- 192.168.1.222 -->
<g id="node8" class="node">
<title>192.168.1.222</title>
<ellipse fill="red" stroke="red" cx="488.61" cy="-157.87" rx="78" ry="18"/>
<text text-anchor="middle" x="488.61" y="-154.17" font-family="Times,serif" font-size="14.00">192.168.1.222</text>
</g>
<!-- 192.168.1.222&#45;&#45;Net 192.168.1.1/24 -->
<g id="edge7" class="edge">
<title>192.168.1.222&#45;&#45;Net 192.168.1.1/24</title>
<path fill="none" stroke="black" d="M454.71,-174.19C419.54,-191.13 364.78,-217.5 329.15,-234.66"/>
</g>
</g>
</svg>
